{
	"_type": "export",
	"__export_format": 3,
	"__export_date": "2018-09-06T18:42:21.612Z",
	"__export_source": "insomnia.desktop.app:v6.0.2",
	"resources": [
		{
			"_id": "wrk_648f722689704513923f554e63da889a",
			"created": 1536257710437,
			"description": "",
			"modified": 1536257710437,
			"name": "foreign currency",
			"parentId": null,
			"_type": "workspace"
		},
		{
			"_id": "env_ec8a4044cf3f4b3195fccb15d4c00aba",
			"color": null,
			"created": 1536257710510,
			"data": {},
			"isPrivate": false,
			"metaSortKey": 1536257710510,
			"modified": 1536257710510,
			"name": "New Environment",
			"parentId": "wrk_648f722689704513923f554e63da889a",
			"_type": "environment"
		},
		{
			"_id": "jar_2eef3e7787e64addb4a89e177167ec56",
			"cookies": [],
			"created": 1536257710514,
			"modified": 1536257710514,
			"name": "Default Jar",
			"parentId": "wrk_648f722689704513923f554e63da889a",
			"_type": "cookie_jar"
		},
		{
			"_id": "req_6fc63f271dfd468bb55cd6e077c0bbb6",
			"authentication": {},
			"body": {
				"mimeType": "application/json",
				"text": "{\n\t\"from\": \"idr\",\n\t\"to\": \"usd\"\n}"
			},
			"created": 1536257715966,
			"description": "",
			"headers": [
				{
					"id": "pair_3070571ec45a4e75a18384fbab53ad9c",
					"name": "Content-Type",
					"value": "application/json"
				}
			],
			"isPrivate": false,
			"metaSortKey": -1536257715966,
			"method": "POST",
			"modified": 1536259249947,
			"name": "create exchange",
			"parameters": [],
			"parentId": "wrk_648f722689704513923f554e63da889a",
			"settingDisableRenderRequestBody": false,
			"settingEncodeUrl": true,
			"settingMaxTimelineDataSize": 1000,
			"settingRebuildPath": true,
			"settingSendCookies": true,
			"settingStoreCookies": true,
			"url": "localhost:8080/exchanges",
			"_type": "request"
		},
		{
			"_id": "req_58a30e9a00694f9285536f87da8d3850",
			"authentication": {},
			"body": {},
			"created": 1536257833336,
			"description": "",
			"headers": [],
			"isPrivate": false,
			"metaSortKey": -1536257833336,
			"method": "GET",
			"modified": 1536259249387,
			"name": "get exchanges",
			"parameters": [],
			"parentId": "wrk_648f722689704513923f554e63da889a",
			"settingDisableRenderRequestBody": false,
			"settingEncodeUrl": true,
			"settingMaxTimelineDataSize": 1000,
			"settingRebuildPath": true,
			"settingSendCookies": true,
			"settingStoreCookies": true,
			"url": "localhost:8080/exchanges",
			"_type": "request"
		},
		{
			"_id": "req_fb41f18f9c66405b94066898b8a99bea",
			"authentication": {},
			"body": {
				"mimeType": "application/json",
				"text": "{\n\t\"date\": \"2018-09-06\",\n\t\"from\": \"AUS\",\n\t\"to\": \"USD\",\n\t\"rate\": 0.2292\n}"
			},
			"created": 1536257878763,
			"description": "",
			"headers": [
				{
					"id": "pair_c7e09eaddcd34a139003cffad25dd4f5",
					"name": "Content-Type",
					"value": "application/json"
				}
			],
			"isPrivate": false,
			"metaSortKey": -1536257878763,
			"method": "POST",
			"modified": 1536258919814,
			"name": "store daily exchange",
			"parameters": [],
			"parentId": "wrk_648f722689704513923f554e63da889a",
			"settingDisableRenderRequestBody": false,
			"settingEncodeUrl": true,
			"settingMaxTimelineDataSize": 1000,
			"settingRebuildPath": true,
			"settingSendCookies": true,
			"settingStoreCookies": true,
			"url": "localhost:8080/daily-exchange",
			"_type": "request"
		},
		{
			"_id": "req_c08317491a214fce8ee922138233c3ae",
			"authentication": {},
			"body": {
				"mimeType": "application/json",
				"text": "{\n\t\"from\": \"AUS\",\n\t\"to\": \"USD\"\n}"
			},
			"created": 1536257964745,
			"description": "",
			"headers": [
				{
					"id": "pair_ada08f658f0447f48eafd53b7cbb5b3e",
					"name": "Content-Type",
					"value": "application/json"
				}
			],
			"isPrivate": false,
			"metaSortKey": -1536257964745,
			"method": "POST",
			"modified": 1536259248644,
			"name": "get week data",
			"parameters": [],
			"parentId": "wrk_648f722689704513923f554e63da889a",
			"settingDisableRenderRequestBody": false,
			"settingEncodeUrl": true,
			"settingMaxTimelineDataSize": 1000,
			"settingRebuildPath": true,
			"settingSendCookies": true,
			"settingStoreCookies": true,
			"url": "localhost:8080/week-data",
			"_type": "request"
		},
		{
			"_id": "req_439bd68eca864b6f85c794fb16fcd1e8",
			"authentication": {},
			"body": {},
			"created": 1536258952796,
			"description": "",
			"headers": [],
			"isPrivate": false,
			"metaSortKey": -1536258952796,
			"method": "GET",
			"modified": 1536258968839,
			"name": "get exchange rate",
			"parameters": [],
			"parentId": "wrk_648f722689704513923f554e63da889a",
			"settingDisableRenderRequestBody": false,
			"settingEncodeUrl": true,
			"settingMaxTimelineDataSize": 1000,
			"settingRebuildPath": true,
			"settingSendCookies": true,
			"settingStoreCookies": true,
			"url": "localhost:8080/exchange-rate/2018-09-06",
			"_type": "request"
		},
		{
			"_id": "req_51c3bcf258c04ee696fa6d428138f5a2",
			"authentication": {},
			"body": {},
			"created": 1536259023523,
			"description": "",
			"headers": [],
			"isPrivate": false,
			"metaSortKey": -1536259023523,
			"method": "DELETE",
			"modified": 1536259248245,
			"name": "delete exchange",
			"parameters": [],
			"parentId": "wrk_648f722689704513923f554e63da889a",
			"settingDisableRenderRequestBody": false,
			"settingEncodeUrl": true,
			"settingMaxTimelineDataSize": 1000,
			"settingRebuildPath": true,
			"settingSendCookies": true,
			"settingStoreCookies": true,
			"url": "localhost:8080/exchanges/",
			"_type": "request"
		}
	]
}